^D:\PROJEKTY\ASSEMBLEROWE\ASM-LAB3-ZAD3\ASM-LAB3-ZAD3\DEBUG\ZAD3.OBJ
D:\PROJEKTY\ASSEMBLEROWE\ASM-LAB3-ZAD3\DEBUG\ASM-LAB3-ZAD3.ILK
D:\PROJEKTY\ASSEMBLEROWE\ASM-LAB3-ZAD3\DEBUG\ASM-LAB3-ZAD3.EXE
D:\PROJEKTY\ASSEMBLEROWE\ASM-LAB3-ZAD3\DEBUG\ASM-LAB3-ZAD3.PDB
